# 
# Wavefront OBJ file
# Converted by the 3D Exploration 1.5.30
# XDimension Software, LLC
# http://www.xdsoft.com/explorer/
# 
mtllib Heavycorvette.mtl
# object HeavyCorvette
g HeavyCorvette
v 19.0069 9.25359 8.3717
v 21.9745 9.05066 10.9952
v 24.0729 4.56461 12.6334
v 24.0729 -4.74017 12.6334
v 21.9745 -9.05066 10.9952
v 19.0069 -9.25359 8.3717
v 9.57372 11.1965 22.5064
v 19.2134 10.7153 28.708
v 23.8605 4.56461 32.0186
v 23.8605 -4.74017 32.0186
v 19.2134 -10.7153 28.708
v 9.57372 -11.1965 22.5064
v 3.63841 9.49251 40.1439
v 11.6798 9.06005 43.2517
v 18.5057 4.5164 41.9174
v 18.5057 -4.5164 41.9174
v 11.6798 -9.12385 43.2171
v 3.63841 -9.5274 40.1439
v 6.21922 5.98368 49.1053
v 6.21922 -6.01511 49.0707
v 6.12652 4.10022 52.3675
v 10.6036 4.10022 53.8367
v 10.6036 -3.1658 53.8367
v 6.12652 -4.13165 52.333
v 2.44363 2.31898 55.4527
v 6.17961 2.31898 55.4527
v 6.17961 -2.35041 55.4181
v 2.44363 -2.35041 55.4181
v -7.11813 8.61329 27.3177
v -14.6675 3.1658 32.9081
v -14.6675 -3.1658 32.9081
v -7.11813 -8.85863 27.3177
v -11.2428 9.98595 39.0536
v -16.6356 4.13632 39.0536
v -16.6356 -4.13632 39.0536
v -11.2428 -9.98595 39.0536
v -3.68804 5.97041 49.1283
v -3.68804 -6.00184 49.0937
v -4.77294 3.79848 61.7844
v -11.2088 8.78764 57.9354
v -16.379 4.13632 57.9354
v -16.379 -4.13632 57.9354
v -11.2088 -8.78764 57.9354
v -4.77294 -3.86195 61.7844
v -6.80826 2.40237 65.9995
v -9.68663 4.13632 65.9995
v -11.722 1.71332 65.9995
v -11.722 -1.71332 65.9995
v -9.68663 -4.13632 65.9995
v -6.80826 -2.40237 65.9995
v -2.3927 -3.98768 52.5823
v -2.3927 3.95625 52.6169
v 12.1242 -6.54877 13.6844
v 12.1242 6.54877 13.6844
v -7.1108 -6.54877 13.7005
v -7.1108 6.54877 13.7005
v -9.0735 6.54877 8.3717
v -9.0735 -6.54877 8.3717
v 12.0942 -6.54877 -6.096
v 12.0942 6.54877 -6.096
v -9.0735 6.54877 -6.096
v -9.0735 -6.54877 -6.096
v 21.5554 6.54877 -6.096
v 21.5554 -6.54877 -6.096
v -9.0735 -10.0585 8.3717
v 8.96849 -10.0585 8.3717
v 8.96849 -10.0585 -2.98951
v -9.0735 -10.0585 -2.98951
v 8.96849 10.0585 8.3717
v -9.0735 10.0585 8.3717
v -9.0735 10.0585 -2.98951
v 8.96849 10.0585 -2.98951
v 15.0519 -9.24067 -15.4405
v 15.0519 9.42333 -15.4405
v -11.568 9.42333 -15.4405
v -11.568 -9.24067 -15.4405
v 15.0519 -6.16044 -32.73
v 15.0519 6.28222 -32.73
v -11.568 6.28222 -32.73
v -11.568 -6.16044 -32.73
v 19.0069 6.49431 8.3717
v 19.0069 -6.59066 8.3717
v 25.6655 4.53539 -11.0478
v 21.8353 5.5468 -16.5513
v 21.8353 -5.42419 -16.5513
v 25.6655 -4.50715 -11.0478
v 23.8274 3.81349 6.97384
v 27.0268 3.88132 -3.19377
v 27.0268 -3.91002 -3.19377
v 23.8274 -4.02667 6.97384
v 10.8409 -9.70918 -32.73
v 10.8409 9.90111 -32.73
v -7.37759 -9.70918 -32.73
v -7.37759 9.90111 -32.73
v -10.6267 -4.89475 24.976
v -10.6218 -4.34774 16.0385
v -10.6218 4.3145 16.0385
v -10.6267 4.72732 24.976
v 16.2137 3.03091 50.1712
v 18.5249 3.27818 46.2865
v 18.5249 -3.27818 46.2865
v 16.2137 -3.03091 50.1712
v 10.6147 13.503 42.6723
v 5.62627 14.0912 40.8729
v 10.6028 13.5035 42.67
v 10.6038 -13.7223 42.6341
v 10.6122 -13.7219 42.6357
v 5.62373 -14.2708 40.8709
vt 0.0662224 0.139613
vt 0.5 0.239255
vt 0 0.25
vt 0.376398 0.125
vt 0.459058 0.586411
vt 0.389138 0.658687
vt 0.388925 0.218147
vt 0 0.648508
vt 0.191411 0.821051
vt 0.00765639 0.623842
vt 0.000455063 0.648508
vt 0.00812872 0.623865
vt 0.459058 0.173196
vt 0.649469 0.658
vt 0.27303 0.600273
vt 0.209708 0.21798
vt 0.0409015 0.464337
vt 0.649469 0.173196
vt 0.608584 0.586411
vt 0.608584 0.173196
vt 0.0552513 0.123513
vt 0.240528 0.137624
vt 0.358155 0.137734
vt 0.459058 0.816322
vt 1 0.629296
vt 0.772452 0.116065
vt 1 0.212037
vt 1 0.116065
vt 0.772452 0.725739
vt 1 0.725739
vt 0.477455 0.926725
vt 0.649469 0.874689
vt 0.42453 0.884288
vt 0.611272 1
vt 0.787071 0.881099
vt 0.00762551 0.624115
vt 0.0313073 0.509865
vt 0.00810698 0.624057
vt 0.0313337 0.509806
vt 0.71464 0.968823
vt 0.136132 0.0450765
vt 0.0552513 0
vt 0.499999 0.240199
vt 0.376555 0.125
vt 0.0663812 0.138329
vt 1.4528e-06 0.25
vt 0.202435 0.231208
vt 0.779765 0.409813
vt 0.779765 0.231208
vt 0.101618 0.62131
vt 0.867789 0.889509
vt 1 0.62131
vt 0.118296 0.889509
vt 0.898362 1
vt 0.0877237 1
vt 0.202435 0.409813
vt 0 5.96046e-08
vt 0.9822 5.96046e-08
vt 0.587409 0.967133
vt 0.893721 0.999726
vt 0.451379 0.887356
vt 0.627398 0.684121
vt 0.299268 0.577173
vt 1 0.576689
vt 0.626115 0.684121
vt 0.959537 0.788307
vt 0.49793 0.702542
vt 0.156426 0.668693
vt 0.626968 0.825007
vt 0.844203 0.902659
vt 0.731579 1
vt 0.628251 0.825007
vt 0.845486 0.902659
vt 0.496647 0.702542
vt 0.505901 0.823689
vt 0.507184 0.823689
vt 0.391405 0.771316
vt 0.391405 0.824444
vt 0.392688 0.824444
vt 0.392688 0.771316
vt 0.299267 0.503649
vt 1 0.5
vt 0 0.598818
vt 0 0.63975
vt 0 0.569875
vt 0 0.652966
vt 0.123801 0.289256
vt 0.123801 0.710744
vt 0.498097 1
vt 0.953582 0.712994
vt 1 0.922322
vt 0.404288 0.712994
vt 0.404288 0.278814
vt 0.498097 0
vt 0.953582 0.278814
vt 1 0.0776779
vt 0.0859918 0.92276
vt 0 0.347034
vt 0.0869715 0.0742624
vt 0.1048 0.5
vt 0.146447 0.25
vt 0 0.353553
vt 0.353553 0.25
vt 0.3952 0.5
vt 0.5 0.353553
vt 0.75 0.125262
vt 0.556718 0.249999
vt 0.5 0.125262
vt 0.533051 0.125001
vt 0.68849 0.249828
vt 0.72046 0.125001
vt 0.694397 0.249999
vt 0.564545 0.249828
vt 0.0330883 0.895608
vt 0.794584 1.07869
vt 0.202076 1.07869
vt 0.794584 -0.0786926
vt 0.0330883 0.103498
vt 0.202076 -0.0786926
vt 0.966912 0.103498
vt 0.966912 0.895608
vt 0.5 0.125
vt 0.698781 0.25
vt 0.75 0.125
vt 0.548987 0.25
vt 0.699085 0.25
vt 0.550367 0.25
vt 0.53897 0.25
vt 0.71157 0.25
vt 0.698075 0.25
vt 0.551121 0.25
vt 0 0.991422
vt 1 0.0147508
vt 1 1
vt 0 0
vt 1 0.143886
vt 0.384391 0.010965
vt 1 0
vt 0 0.74664
vt 1 0.850908
vt 0 0.243874
vt 0.384391 0.989035
vt 0 0.907811
vt 1 0
vt 1 1
vt 0 0.083588
vt 1 0.831702
vt 0 1
vt 1 0.165036
vt 0.572734 0
vt 0.182863 0.174468
vt 0.679336 0.174468
vt 0.182863 0
vt 0.182863 0.825532
vt 0.572734 1
vt 0.679336 0.825532
vt 1 0.0406561
vt 0 0.825532
vt 0.182863 1
vt 0 0.174468
vt 1 0.968424
vt 1 0.25
vt 0.75 0.25
vt 0.831457 0.125
vt 0.922054 0.125
vt 0.314153 0.98014
vt 0.314153 0.0158275
vt 0.997423 1
vt 0 0.199562
vt 0 0.804394
vt 0.5 0.5
vt 1 0.264212
vt 0.5 0.25
vt 1 0.489274
vt 0.814288 1
vt 0.24369 0
vt 0.24369 1
vt 0.814288 0
vt 1 0.882683
vt 5.7639e-08 0.292893
vt 5.7639e-08 0.707107
vt 1 0.117317
# 182 texture verticies
vn -0.349151 0.0166856 0.936918
vn -0.358588 0.0356884 0.932814
vn -0.339551 -0.00232488 0.940585
vn 0.000120461 -0.957812 0.287394
vn -0.00220837 -0.999511 0.0311862
vn 0.000230757 -0.83481 0.550539
vn 0.000159817 0.924456 0.381289
vn 0.000230757 0.83481 0.550539
vn 0.00293099 0.99951 0.0311785
vn 0.843383 0.265565 0.467098
vn 0.84582 -0.257172 0.467388
vn 0 0.981695 0.190462
vn 0.745628 -0.666363 -0.000564439
vn 0.744468 -0.667657 -0.00112888
vn -0.269795 -0.925046 -0.267397
vn 0.0287588 -0.989449 -0.141996
vn -0.41102 -0.903464 -0.121714
vn -0.0978871 0.992913 -0.0673973
vn -0.0496298 0.998408 -0.0268182
vn 0.0248803 0.990272 -0.136899
vn -0.38611 0.900144 -0.201644
vn 0 -0.662775 -0.748818
vn 0.745628 0.666363 -0.000564439
vn 0.744468 0.667657 -0.00112888
vn 0.746784 0.665066 0
vn 0 0.662775 -0.748818
vn 0.0404346 0.993958 -0.102045
vn 0 -1 0
vn 0 -0.957896 0.287115
vn 0 1 0
vn -0.735781 -0.675931 -0.0417655
vn -0.666334 -0.740313 -0.0890863
vn -0.633443 0.770331 -0.0730763
vn -0.70636 0.674457 -0.214857
vn -0.621938 0.60421 -0.498121
vn -0.762496 0.521181 -0.383368
vn 0 -0.999633 0.0270884
vn 0 -0.988198 0.15318
vn -0.640372 -0.756158 -0.134714
vn 0 0.999618 0.0276236
vn 0 0.98674 0.16231
vn 0.241314 0.966527 0.0871377
vn -0.647519 0.749776 -0.136217
vn 0.638523 -0.757673 -0.134984
vn 0.561514 -0.820299 -0.108678
vn 0.645678 0.751312 -0.136496
vn 0.443251 0.889727 0.10915
vn 0.297932 0.952508 0.0629596
vn 0.176248 0.983794 0.0329698
vn 0.108966 0.991752 -0.0674886
vn 0.118398 0.991315 -0.0572459
vn 0.292712 -0.95485 0.0508019
vn 0.383714 -0.916851 0.110222
vn 0.435934 -0.894749 0.0968792
vn 0.112683 0.988742 -0.0984422
vn 0.42398 0.902549 -0.075144
vn 0.416909 -0.904855 -0.0861657
vn -0.61103 0 -0.791607
vn 0.165116 -0.985888 0.0275956
vn -0.00122747 -0.985938 0.167104
vn 0.00159736 0.983838 0.179052
vn 0.108966 -0.991752 -0.0674886
vn 0.118398 -0.991315 -0.0572459
vn 0.158926 0.979936 -0.120287
vn 0.125784 0.984882 -0.119106
vn 0 -0.960923 0.276817
vn 0 0.955798 0.294024
vn 0.132739 -0.982576 -0.130095
vn 0.116183 -0.987772 -0.103958
vn -0.872692 0.4174 -0.25335
vn 0.154031 -0.979368 -0.130819
vn -0.876925 -0.406369 -0.256644
vn -0.765132 -0.515875 -0.385288
vn -0.0437494 -0.998924 -0.0153951
vn 0.380075 0.916373 0.125709
vn 0.359674 0.929688 -0.0794664
vn 0.353247 -0.931124 -0.0906955
vn 0 -0.980811 0.194963
vn -0.697168 0.640419 -0.322213
vn -0.695561 0.641249 -0.324029
vn 0.0367499 -0.995893 -0.0827469
vn -0.554679 0.831164 -0.0386898
vn -0.621938 -0.60421 -0.498121
vn -0.695561 -0.641249 -0.324029
vn -0.701808 -0.637984 -0.316925
vn 0.746784 -0.665066 0
vn -0.344681 -0.0154879 0.938592
vn -0.333975 0.00467596 0.94257
vn -0.355203 -0.0356435 0.93411
vn -0.173404 -0.00729253 0.984824
vn 0.172219 -0.00552892 0.985043
vn -0.347752 -0.00603745 0.937567
vn 0.446146 -0.00175578 0.894958
vn 0.666379 0 0.745613
vn 0.447962 0 0.894053
vn 0.772966 0 0.634448
vn 0.859405 0 0.511295
vn 0.170216 -0.00729665 0.98538
vn -0.505479 -0.00507345 0.862824
vn -0.50676 -0.00375225 0.862079
vn 0.336648 0.90601 0.256541
vn 0.298228 0.926071 0.231199
vn 0.061309 0.92743 0.368938
vn 0.260581 -0.931001 0.255607
vn 0.250573 -0.938273 0.238446
vn 0.122872 -0.915615 0.382821
vn 0.279218 -0.915006 0.291207
vn 0.446492 -0.867861 0.21786
vn 0.210398 -0.952609 0.2197
vn 0.213073 0.95202 0.219676
vn 0.451527 0.865313 0.217614
vn 0.280255 0.914525 0.291722
vn -0.0339603 -0.926369 0.375084
vn -0.0324001 0.926923 0.37385
vn 0.655962 -0.733093 0.17969
vn 0.514009 -0.797331 0.316319
vn 0.516375 0.796622 0.314244
vn -0.00721217 0.912318 0.409419
vn -0.10057 0.91627 0.387731
vn 0.478984 0.509694 0.714694
vn 0.332797 0.907651 0.255767
vn 0.332797 -0.907651 0.255767
vn 0.0329208 -0.902754 0.428895
vn 0.478939 -0.507481 0.716296
vn -0.103065 -0.915094 0.389847
vn 1.07286e-08 0.866025 0.5
vn -0.0648835 0.864354 0.49868
vn 0.652796 0.73531 0.182145
vn 0.00754187 -0.865983 0.500016
vn 1.61534e-07 -0.866025 0.5
vn 2.50462e-09 0.866025 0.5
vn -0.0815611 0.862531 0.499387
vn 0.00950139 -0.866057 0.499855
vn 1.08111e-07 -0.866025 0.5
vn -0.702505 0.71108 0.0291975
vn -0.681649 0.676209 0.279456
vn -0.643218 0.714986 0.273982
vn -0.735192 0.677785 0.00999101
vn -0.681649 -0.676209 0.279456
vn -0.702505 -0.71108 0.0291975
vn -0.643218 -0.714986 0.273982
vn -0.735192 -0.677785 0.00999101
vn 0.428341 0.791528 0.435899
vn 0.455387 0.75595 0.47028
vn -0.616893 0.597773 0.511967
vn -0.646258 0.542857 0.536337
vn -0.616893 -0.597773 0.511967
vn -0.646258 -0.542857 0.536337
vn 0.42323 -0.790951 0.441897
vn 0.452939 -0.751887 0.479073
vn 0.99999 0 -0.00440482
vn 0.969959 0 0.24327
vn 0.969959 0 0.24327
vn 0.742877 0.634325 0.213926
vn 0.96074 0.275476 0.0330439
vn 0.887695 0.4503 0.0960547
vn 0.734077 0.653661 0.184004
vn 0.985388 0 0.170325
vn 0.944189 0 0.329404
vn 0.735597 -0.6427 0.214087
vn 0.926059 -0.375327 0.0393046
vn 0.722833 -0.665422 0.18635
vn 0.880702 -0.464321 0.0936468
vn 0.605243 0.707673 0.364527
vn 0.563306 0.735964 0.375557
vn 0.599388 -0.711805 0.366153
vn 0.566667 -0.733805 0.374724
vn 0 0 1
vn -0.555148 0 0.831751
vn -0.554252 0 -0.832349
vn 0 0 -1
vn 0.278511 0 0.960433
vn 0.468594 0 -0.883414
vn 0.769473 0 0.63868
vn -0.161604 0 -0.986856
vn 0.953891 0 0.300155
vn 0.649869 -0.00681467 -0.760016
vn 0.655917 -0.0136295 -0.75471
vn 0.662344 0 -0.7492
vn 0.645671 0.00873419 -0.763566
vn 0.6519 0.00873459 -0.758255
vn 0.6466 -0.0136291 -0.762707
vn 0.655929 0.0131018 -0.754709
vn 0.820782 0 -0.571241
vn 1 0 0
vn -1 0 0
vn -0.996241 0 0.0866256
vn -0.972324 0 0.233637
vn -0.994576 0 0.104014
vn -0.966167 0 0.257915
vn -0.938374 0 0.345622
vn -0.984473 0 0.175537
vn -0.59511 0 -0.803645
vn 0.968025 -0.000546873 0.250855
vn 0.938786 -0.000274759 0.344501
vn 0.938863 0 0.34429
vn 0.967912 -0.00109375 0.251288
vn 0.900512 0 0.434831
vn -1 0 -0.00053843
vn -0.995601 0 -0.0936944
vn -0.983491 0 0.180956
vn -0.937524 0 0.347922
vn -0.979563 0 -0.201137
vn -0.952352 0 -0.305
vn -0.865963 0 0.500108
# 205 normals
usemtl Material__1
f 103/1/1 13/2/1 14/3/2
f 13/2/1 103/1/1 104/4/3
usemtl Material__2
f 66/5/4 53/6/5 55/7/6
f 69/5/7 56/7/8 54/6/9
f 14/8/10 8/9/10 105/10/10
f 17/11/11 106/12/11 11/9/11
f 69/5/7 70/13/12 56/7/8
f 66/5/13 59/14/13 53/6/14
f 55/7/15 12/15/16 32/16/17
f 55/7/15 53/6/5 12/15/16
f 29/16/18 13/17/19 7/15/20
f 56/7/21 29/16/18 7/15/20
f 56/7/21 7/15/20 54/6/9
f 62/18/22 67/19/22 68/20/22
f 60/14/23 69/5/23 54/6/24
f 60/14/23 72/19/25 69/5/23
f 61/18/26 71/20/26 72/19/26
f 29/16/18 33/21/27 13/17/19
f 68/20/28 66/5/4 65/13/29
f 72/19/30 70/13/12 69/5/7
f 70/13/12 72/19/30 71/20/30
f 32/16/17 95/22/31 96/23/32
f 56/7/21 98/22/33 29/16/34
f 1/24/35 54/6/35 7/15/36
f 91/25/37 76/26/38 93/27/37
f 76/26/39 80/28/39 93/27/39
f 92/25/40 75/26/41 74/29/42
f 75/26/41 92/25/40 94/27/40
f 79/28/43 75/26/43 94/27/43
f 77/30/44 73/29/45 91/25/44
f 74/29/42 78/30/46 92/25/46
f 87/31/47 63/32/48 81/24/49
f 7/15/20 2/33/50 1/24/51
f 64/32/52 89/34/53 90/31/54
f 7/15/20 8/9/55 2/33/50
f 63/32/48 84/35/56 74/29/42
f 85/35/57 64/32/52 73/29/45
f 82/24/58 6/24/58 53/6/58
f 1/24/58 81/24/58 54/6/58
f 82/24/59 59/14/60 64/32/52
f 60/14/61 81/24/49 63/32/48
f 81/24/49 60/14/61 54/6/9
f 5/33/62 12/15/16 6/24/63
f 103/36/64 7/15/20 104/37/64
f 7/15/20 105/10/65 8/9/55
f 63/32/48 74/29/42 60/14/61
f 76/26/38 59/14/60 62/18/66
f 60/14/61 75/26/41 61/18/67
f 60/14/61 74/29/42 75/26/41
f 106/12/68 12/15/16 11/9/69
f 66/5/4 55/7/6 65/13/29
f 13/17/70 104/37/70 7/15/36
f 107/38/71 108/39/71 12/15/16
f 18/17/72 12/15/73 108/39/72
f 32/16/17 12/15/16 18/17/74
f 67/19/22 62/18/22 59/14/22
f 61/18/26 72/19/26 60/14/26
f 63/32/48 87/31/47 88/34/75
f 64/32/52 90/31/54 82/24/59
f 63/32/48 83/40/76 84/35/56
f 64/32/52 85/35/57 86/40/77
f 12/15/16 5/33/62 11/9/69
f 59/14/60 76/26/38 73/29/78
f 33/21/79 29/16/34 30/41/79
f 33/21/79 30/41/79 34/42/80
f 36/21/81 32/16/17 18/17/74
f 66/5/4 68/20/28 67/19/28
f 32/16/17 96/23/32 55/7/15
f 56/7/21 97/23/82 98/22/33
f 53/6/83 6/24/83 12/15/73
f 91/25/37 73/29/78 76/26/38
f 35/42/84 31/41/85 36/21/85
f 36/21/85 31/41/85 32/16/17
f 64/32/52 59/14/60 73/29/78
f 59/14/13 66/5/13 67/19/86
f 82/24/59 53/6/5 59/14/60
usemtl Material__1
f 18/43/87 108/44/88 107/45/87
f 18/43/87 107/45/87 17/46/89
usemtl Material__3
f 28/47/90 26/48/91 25/49/92
f 23/50/93 99/51/94 22/52/95
f 102/53/96 100/54/97 99/51/94
f 100/54/97 102/53/96 101/55/97
f 26/48/91 23/50/93 22/52/95
f 26/48/91 27/56/98 23/50/93
f 25/49/92 51/57/99 28/47/90
f 51/57/99 25/49/92 52/58/100
f 26/48/91 28/47/90 27/56/98
f 23/50/93 102/53/96 99/51/94
usemtl Material__1
f 99/59/101 15/60/102 22/61/103
f 16/60/104 102/59/105 23/61/106
f 38/62/107 43/63/108 36/64/109
f 33/64/110 40/63/111 37/65/112
f 36/64/109 18/66/113 38/62/107
f 13/66/114 33/64/110 37/65/112
f 51/67/115 44/68/116 38/62/107
f 37/65/112 40/63/111 39/68/117
f 38/62/107 44/68/116 43/63/108
f 19/69/118 13/66/114 37/65/112
f 13/66/114 19/69/118 14/70/119
f 19/69/120 15/60/120 14/70/120
f 15/60/102 99/59/101 100/71/121
f 19/69/118 22/61/103 15/60/102
f 16/60/104 101/71/122 102/59/105
f 20/72/123 16/60/104 23/61/106
f 16/60/124 20/72/124 17/73/124
f 20/72/123 18/66/113 17/73/125
f 20/72/123 38/62/107 18/66/113
f 52/74/126 19/69/118 37/65/112
f 52/74/126 21/75/127 19/69/118
f 21/75/127 22/61/103 19/69/118
f 37/65/112 39/68/117 52/74/128
f 23/61/106 24/76/129 20/72/123
f 51/67/130 20/72/123 24/76/129
f 20/72/123 51/67/130 38/62/107
f 25/77/131 21/75/127 52/74/126
f 25/77/131 26/78/132 21/75/127
f 21/75/127 26/78/132 22/61/103
f 23/61/106 27/79/133 24/76/129
f 28/80/134 24/76/129 27/79/133
f 24/76/129 28/80/134 51/67/130
f 33/64/135 41/81/136 40/63/137
f 41/81/136 33/64/135 34/82/138
f 42/81/139 36/64/140 43/63/141
f 42/81/139 35/82/142 36/64/140
f 39/68/117 46/83/143 45/84/144
f 46/83/143 39/68/117 40/63/111
f 46/83/145 41/81/136 47/85/146
f 46/83/145 40/63/137 41/81/136
f 42/81/139 49/83/147 48/85/148
f 49/83/147 42/81/139 43/63/141
f 49/83/149 43/63/108 44/68/116
f 49/83/149 44/68/116 50/84/150
usemtl Material__4
f 100/86/151 16/87/152 15/88/153
f 8/89/154 3/90/155 2/91/156
f 8/89/154 9/92/157 3/90/155
f 10/93/158 3/90/155 9/92/159
f 11/94/160 4/95/161 10/93/162
f 4/95/161 11/94/160 5/96/163
f 15/88/164 8/89/154 14/97/165
f 8/89/154 15/88/164 9/92/157
f 16/87/152 9/92/159 15/88/153
f 16/87/166 11/94/160 10/93/162
f 3/90/155 10/93/158 4/95/161
f 9/92/159 16/87/152 10/93/158
f 16/87/152 100/86/151 101/98/151
f 16/87/166 17/99/167 11/94/160
usemtl Material__1
f 50/100/168 48/101/168 49/102/168
f 47/103/168 50/100/168 45/104/168
f 50/100/168 47/103/168 48/101/168
f 47/103/168 45/104/168 46/105/168
f 29/106/169 95/107/169 32/108/169
f 55/109/170 97/110/170 56/111/170
f 29/106/169 98/112/169 95/107/169
f 55/109/170 96/113/170 97/110/170
usemtl Material__5
f 91/114/171 78/115/171 77/116/171
f 79/117/171 93/118/171 80/119/171
f 94/120/171 93/118/171 79/117/171
f 93/118/171 92/121/171 78/115/171
f 92/121/171 93/118/171 94/120/171
f 93/118/171 78/115/171 91/114/171
usemtl Material__1
f 82/122/172 87/123/172 81/124/172
f 82/122/172 90/125/172 87/123/172
f 88/126/173 64/122/173 63/124/173
f 64/122/173 88/126/173 89/127/173
f 86/128/174 63/124/174 64/122/174
f 63/124/174 86/128/174 83/129/174
f 84/130/175 73/122/175 74/124/175
f 73/122/175 84/130/175 85/131/175
usemtl Material__6
f 87/132/176 89/133/176 88/134/176
f 87/132/176 90/135/176 89/133/176
usemtl Material__7
f 82/136/177 5/137/178 6/138/179
f 3/139/180 82/136/177 81/140/181
f 82/136/177 3/139/180 4/141/182
f 81/140/181 2/142/183 3/139/180
f 81/140/181 1/134/179 2/142/183
f 82/136/177 4/141/182 5/137/178
usemtl Material__8
f 83/143/184 85/144/184 84/145/184
f 83/143/184 86/146/184 85/144/184
usemtl Material__9
f 73/135/185 78/147/185 74/148/185
f 73/135/185 77/149/185 78/147/185
usemtl Material__10
f 79/147/186 76/135/186 75/148/186
f 76/135/186 79/147/186 80/149/186
usemtl Material__11
f 68/150/186 58/151/186 62/152/187
f 58/151/186 68/150/186 65/153/188
f 57/154/186 71/155/186 61/156/189
f 61/156/189 58/151/186 57/154/186
f 58/151/186 61/156/189 62/152/187
f 61/156/189 76/157/190 62/152/187
f 65/153/188 56/158/191 70/159/192
f 56/158/191 65/153/188 55/160/191
f 61/156/189 75/161/190 76/157/190
f 57/154/186 70/159/192 71/155/186
usemtl Material__1
f 29/162/193 32/163/193 31/164/193
f 29/162/193 31/164/193 30/165/193
usemtl Material__12
f 51/138/194 39/166/195 44/167/196
f 39/166/195 51/138/194 52/168/197
f 50/169/198 44/167/196 39/166/195
f 50/169/198 39/166/195 45/170/198
usemtl Material__1
f 98/171/199 96/172/199 95/173/199
f 96/172/199 98/171/199 97/174/199
usemtl Material__13
f 34/175/200 42/176/201 41/177/202
f 42/176/201 34/175/200 35/178/203
f 30/179/204 35/178/203 34/175/200
f 41/177/202 48/180/205 47/181/205
f 48/180/205 41/177/202 42/176/201
f 35/178/203 30/179/204 31/182/204
# object HeavyCorvetteGun(1)
g HeavyCorvetteGun_1_
v 1.10741 7.18997 10.8037
v 3.27893 8.85301 9.95631
v 3.27893 7.18997 10.8037
v 1.10741 8.85301 9.95631
v 0.569797 3.3807 4.50838
v 3.81087 5.28385 1.78437
v 3.81087 3.3807 4.50838
v 0.569797 5.28385 1.78437
vt 0 1
vt 1 0
vt 0 0
vt 1 1
vt 0.824402 0
vt 4.28539e-07 0.819315
vt 0 0.182815
# 7 texture verticies
vn 0 0.453992 0.891006
vn 0.997622 0.045013 0.0521942
vn 0.997563 0.0571905 0.0399565
vn 0 -0.855562 0.5177
vn 0.997383 0.032822 0.0644165
vn 0 0.916407 -0.400248
vn -0.997571 0.0454907 0.0527481
vn -0.997511 0.0577974 0.0403804
vn -0.997327 0.0331702 0.0650997
# 9 normals
usemtl Material__14
f 111/183/206 112/184/206 109/185/206
f 112/184/206 111/183/206 110/186/206
usemtl Material__15
f 115/187/207 114/186/208 110/188/207
f 109/189/209 115/187/209 111/189/209
f 115/187/207 110/188/207 111/189/210
f 115/187/209 109/189/209 113/187/209
f 114/186/211 116/186/211 112/188/211
f 113/187/212 112/188/212 116/186/213
f 112/188/212 113/187/212 109/189/214
f 114/186/211 112/188/211 110/188/211
# object HeavyCorvetteGun(2)
g HeavyCorvetteGun_2_
v -3.39259 7.18997 10.8037
v -1.22107 8.85301 9.95631
v -1.22107 7.18997 10.8037
v -3.39259 8.85301 9.95631
v -3.9302 3.3807 4.50838
v -0.689133 5.28385 1.78437
v -0.689133 3.3807 4.50838
v -3.9302 5.28385 1.78437
vt 0 1
vt 1 0
vt 0 0
vt 1 1
vt 0.824402 0
vt 4.28539e-07 0.819315
vt 0 0.182815
# 7 texture verticies
vn 0 0.453992 0.891006
vn 0.997622 0.045013 0.0521942
vn 0.997563 0.0571905 0.0399565
vn 0 -0.855562 0.5177
vn 0.997383 0.032822 0.0644165
vn 0 0.916407 -0.400248
vn -0.997571 0.0454907 0.0527481
vn -0.997511 0.0577974 0.0403804
vn -0.997327 0.0331702 0.0650997
# 9 normals
usemtl Material__14
f 119/190/215 120/191/215 117/192/215
f 120/191/215 119/190/215 118/193/215
usemtl Material__15
f 123/194/216 122/193/217 118/195/216
f 117/196/218 123/194/218 119/196/218
f 123/194/216 118/195/216 119/196/219
f 123/194/218 117/196/218 121/194/218
f 122/193/220 124/193/220 120/195/220
f 121/194/221 120/195/221 124/193/222
f 120/195/221 121/194/221 117/196/223
f 122/193/220 120/195/220 118/195/220
# object HeavyCorvetteTurret(1)
g HeavyCorvetteTurret_1_
v 0.0984154 4.75005 52.7191
v 8.20743 10.0283 52.0005
v 7.96959 4.75005 52.7191
v -0.131316 10.0283 52.0005
v -1.82326 9.66522 43.0725
v 8.20743 13.3348 47.0332
v 9.92476 9.66522 43.0725
v -0.131316 13.3348 47.0332
v 3.93557 14.6306 45.3506
v 3.93557 10.9611 41.3899
vt 0.838355 1
vt 0.855731 0.490196
vt 0.694086 0.85382
vt 0 0.163574
vt 0 0.833575
vt 0.235135 0.85382
vt 0.235135 0.14402
vt 0.694086 0.14402
vt 1 0.490196
vt 0.838355 0
# 10 texture verticies
vn 0.379973 0.723019 -0.576944
vn 0.427003 0.748095 -0.507958
vn 0 0.134899 0.990859
vn -0.0179826 0.827251 0.561545
vn -0.000574666 0.829075 0.559137
vn -0.0359578 0.831896 0.553766
vn 0.0171205 0.827264 0.561553
vn 0.0342346 0.831946 0.5538
vn 0.330055 0.692448 -0.641544
vn -0.394367 0.719602 -0.57153
vn -0.341742 0.689391 -0.638712
vn -0.443761 0.743916 -0.499665
vn 0.97564 0.121393 0.182731
vn 0.981692 -0.018425 0.189582
vn 0.950433 0.258829 0.172294
vn -0.976276 0.120167 0.180128
vn -0.951784 0.255365 0.169988
vn -0.982236 -0.0173127 0.186848
# 18 normals
usemtl Material__16
f 131/197/224 133/198/224 130/199/225
f 125/200/226 127/201/226 126/202/226
f 128/203/227 133/198/228 132/204/229
f 128/203/227 126/202/230 133/198/228
f 126/202/230 130/199/231 133/198/228
f 133/198/224 131/197/224 134/205/232
f 125/200/226 126/202/226 128/203/226
f 129/206/233 133/198/233 134/205/234
f 129/206/233 132/204/235 133/198/233
f 131/197/236 126/202/236 127/201/237
f 131/197/236 130/199/238 126/202/236
f 129/206/239 128/203/239 132/204/240
f 128/203/239 129/206/239 125/200/241
# object HeavyCorvetteTurret(2)
g HeavyCorvetteTurret_2_
v 7.90158 -4.75005 52.7191
v -0.207427 -10.0283 52.0005
v 0.0304127 -4.75005 52.7191
v 8.13132 -10.0283 52.0005
v 9.82326 -9.66522 43.0725
v -0.207427 -13.3348 47.0332
v -1.92476 -9.66522 43.0725
v 8.13132 -13.3348 47.0332
v 4.06443 -14.6306 45.3506
v 4.06443 -10.9611 41.3899
vt 0.838355 1
vt 0.855731 0.490196
vt 0.694086 0.85382
vt 0 0.163574
vt 0 0.833575
vt 0.235135 0.85382
vt 0.235135 0.14402
vt 0.694086 0.14402
vt 1 0.490196
vt 0.838355 0
# 10 texture verticies
vn -0.379973 -0.723019 -0.576944
vn -0.427003 -0.748095 -0.507958
vn 4.08612e-09 -0.134899 0.990859
vn 8.17224e-09 -0.134899 0.990859
vn 0.0179826 -0.827251 0.561545
vn 0.000574666 -0.829075 0.559137
vn 0.0359578 -0.831896 0.553766
vn -0.0171205 -0.827264 0.561553
vn -0.0342346 -0.831946 0.5538
vn -0.330055 -0.692448 -0.641544
vn 0 -0.134899 0.990859
vn 0.394367 -0.719602 -0.57153
vn 0.341742 -0.689391 -0.638712
vn 0.443761 -0.743916 -0.499665
vn -0.97564 -0.121393 0.182731
vn -0.981692 0.0184249 0.189582
vn -0.950433 -0.258829 0.172294
vn 0.976276 -0.120167 0.180128
vn 0.951784 -0.255365 0.169988
vn 0.982236 0.0173128 0.186848
# 20 normals
f 141/207/242 143/208/242 140/209/243
f 135/210/244 137/211/245 136/212/244
f 138/213/246 143/208/247 142/214/248
f 138/213/246 136/212/249 143/208/247
f 136/212/249 140/209/250 143/208/247
f 143/208/242 141/207/242 144/215/251
f 135/210/244 136/212/244 138/213/252
f 139/216/253 143/208/253 144/215/254
f 139/216/253 142/214/255 143/208/253
f 141/207/256 136/212/256 137/211/257
f 141/207/256 140/209/258 136/212/256
f 139/216/259 138/213/259 142/214/260
f 138/213/259 139/216/259 135/210/261
# object HeavyCorvetteGun(3)
g HeavyCorvetteGun_3_
v -3.39259 7.18997 10.8037
v -1.22107 8.85301 9.95631
v -1.22107 7.18997 10.8037
v -3.39259 8.85301 9.95631
v -3.9302 3.3807 4.50838
v -0.689133 5.28385 1.78437
v -0.689133 3.3807 4.50838
v -3.9302 5.28385 1.78437
vt 0 1
vt 1 0
vt 0 0
vt 1 1
vt 0.824402 0
vt 4.28539e-07 0.819315
vt 0 0.182815
# 7 texture verticies
vn 0 0.453992 0.891006
vn 0.997622 0.045013 0.0521942
vn 0.997563 0.0571905 0.0399565
vn 0 -0.855562 0.5177
vn 0.997383 0.032822 0.0644165
vn 0 0.916407 -0.400248
vn -0.997571 0.0454907 0.0527481
vn -0.997511 0.0577974 0.0403804
vn -0.997327 0.0331702 0.0650997
# 9 normals
usemtl Material__14
f 147/217/262 148/218/262 145/219/262
f 148/218/262 147/217/262 146/220/262
usemtl Material__15
f 151/221/263 150/220/264 146/222/263
f 145/223/265 151/221/265 147/223/265
f 151/221/263 146/222/263 147/223/266
f 151/221/265 145/223/265 149/221/265
f 150/220/267 152/220/267 148/222/267
f 149/221/268 148/222/268 152/220/269
f 148/222/268 149/221/268 145/223/270
f 150/220/267 148/222/267 146/222/267
# object HeavyCorvetteGun(4)
g HeavyCorvetteGun_4_
v 1.10741 7.438 10.8037
v 3.27893 9.10104 9.95631
v 3.27893 7.438 10.8037
v 1.10741 9.10104 9.95631
v 0.569797 3.62873 4.50838
v 3.81087 5.53188 1.78437
v 3.81087 3.62873 4.50838
v 0.569797 5.53188 1.78437
vt 0 1
vt 1 0
vt 0 0
vt 1 1
vt 0.824402 0
vt 4.28539e-07 0.819315
vt 0 0.182815
# 7 texture verticies
vn 0 0.453992 0.891006
vn 0.997622 0.045013 0.0521942
vn 0.997563 0.0571905 0.0399565
vn 0 -0.855562 0.5177
vn 0.997383 0.032822 0.0644165
vn 0 0.916407 -0.400248
vn -0.997571 0.0454907 0.0527481
vn -0.997511 0.0577974 0.0403804
vn -0.997327 0.0331702 0.0650997
# 9 normals
usemtl Material__14
f 155/224/271 156/225/271 153/226/271
f 156/225/271 155/224/271 154/227/271
usemtl Material__15
f 159/228/272 158/227/273 154/229/272
f 153/230/274 159/228/274 155/230/274
f 159/228/272 154/229/272 155/230/275
f 159/228/274 153/230/274 157/228/274
f 158/227/276 160/227/276 156/229/276
f 157/228/277 156/229/277 160/227/278
f 156/229/277 157/228/277 153/230/279
f 158/227/276 156/229/276 154/229/276
# object HeavyCorvetteTLWing
g HeavyCorvetteTLWing
v 17.675 -12.3564 -22.4734
v 18.6 -11.0827 -22.4734
v 14.0044 -8.33273 -23.4692
v 13.4472 -9.10006 -23.4692
v 13.6979 -8.75486 -28.4966
v 20.0858 -12.0218 -30.2632
v 47.5552 -27.7115 -23.384
v 46.9697 -28.5845 -23.384
v 47.2331 -28.1918 -28.6706
vt 0 0.150939
vt 0.11646 0.981967
vt 0.11646 0.999118
vt 0.127359 0.0163215
vt 0 0.123845
vt 0.127359 0
vt 0.770303 0.00734252
vt 0.996243 0.194463
vt 0.792558 0.989682
# 9 texture verticies
vn -0.0347192 0.0256323 0.999068
vn 0.0224279 -0.0156559 0.999626
vn 0.0226962 -0.0152211 0.999627
vn -0.148494 0.107826 0.983017
vn -0.0920683 0.0668536 0.993506
vn -0.148493 0.107826 0.983017
vn -0.522809 -0.838606 -0.153008
vn -0.543369 -0.828321 -0.136506
vn -0.491985 -0.856838 -0.154205
vn -0.595445 -0.798935 -0.0845478
vn 0.489965 0.869917 -0.0563797
vn 0.473501 0.879164 -0.0535432
vn 0.506062 0.862465 -0.00745388
vn 0.430574 0.896823 -0.101556
vn -0.809174 0.58757 3.61666e-07
vn -0.493826 -0.858634 -0.137416
vn -0.505851 -0.858023 -0.0889482
vn 0.506235 0.860362 -0.0591931
vn 0.513405 0.851245 -0.108618
vn 0.830521 -0.556987 -9.67429e-08
# 20 normals
usemtl Material__17
f 162/231/280 168/232/281 167/233/282
f 163/234/283 161/235/284 162/231/280
f 161/235/284 163/234/283 164/236/285
f 161/235/286 165/237/287 166/238/288
f 161/235/286 164/236/289 165/237/287
f 166/238/290 163/234/291 162/231/292
f 166/238/290 165/237/293 163/234/291
f 163/234/294 165/237/294 164/236/294
f 168/232/281 162/231/280 161/235/284
f 168/232/295 166/238/288 169/239/296
f 168/232/295 161/235/286 166/238/288
f 166/238/290 167/233/297 169/239/298
f 167/233/297 166/238/290 162/231/292
f 167/233/299 168/232/299 169/239/299
# object HeavyCorvetteTRWing
g HeavyCorvetteTRWing
v 13.741 9.07797 -28.4667
v 18.6423 11.409 -22.4435
v 20.1281 12.3482 -30.2333
v 17.7173 12.6828 -22.4435
v 47.5853 28.0832 -23.3541
v 47.2632 28.5635 -28.6407
v 46.9998 28.9563 -23.3541
v 14.0475 8.65584 -23.4393
v 13.4904 9.42317 -23.4393
vt 0.120217 0.982849
vt 0.00375727 0.152178
vt 0.120217 1
vt 0.00375727 0.125084
vt 0.131116 0.0175858
vt 0.131116 0.00126433
vt 0.77406 0.00860685
vt 1 0.195702
vt 0.796316 0.990565
# 9 texture verticies
vn 0.0224171 0.0156483 0.999626
vn -0.0347155 -0.0256296 0.999069
vn 0.0226859 0.0152141 0.999627
vn -0.0920503 -0.0668407 0.993509
vn -0.148462 -0.107803 0.983025
vn -0.148461 -0.107803 0.983025
vn -0.523476 0.838163 -0.153151
vn -0.543803 0.828027 -0.136562
vn -0.595907 0.79859 -0.0845461
vn -0.492912 0.856279 -0.154354
vn 0.490799 -0.869453 -0.056275
vn 0.473953 -0.878924 -0.0534838
vn 0.43098 -0.896627 -0.101566
vn 0.5069 -0.861974 -0.00723536
vn -0.809174 -0.58757 -2.65064e-07
vn -0.495018 0.857921 -0.137583
vn -0.50708 0.857296 -0.0889564
vn 0.507443 -0.85966 -0.0590422
vn 0.514621 -0.850509 -0.108624
vn 0.830523 0.556984 3.7024e-07
# 20 normals
f 176/240/300 171/241/301 174/242/302
f 173/243/303 177/244/304 171/241/301
f 177/244/304 173/243/303 178/245/305
f 173/243/306 170/246/307 178/245/308
f 173/243/306 172/247/309 170/246/307
f 172/247/310 177/244/311 170/246/312
f 172/247/310 171/241/313 177/244/311
f 178/245/314 170/246/314 177/244/314
f 171/241/301 176/240/300 173/243/303
f 176/240/315 172/247/309 173/243/306
f 176/240/315 175/248/316 172/247/309
f 174/242/317 172/247/310 175/248/318
f 172/247/310 174/242/317 171/241/313
f 174/242/319 175/248/319 176/240/319
# object HeavyCorvetteBLWing
g HeavyCorvetteBLWing
v -12.934 -12.2148 -22.478
v -14.1395 -11.2541 -22.478
v -11.6165 -8.14398 -23.4738
v -10.8902 -8.7227 -23.4738
v -16.5596 -13.2404 -30.2678
v -11.217 -8.46235 -28.5011
v -29.6886 -29.8892 -21.1229
v -28.9089 -30.5605 -21.1229
v -29.2596 -30.2585 -26.4094
vt 2.91994e-06 1
vt 0.148184 0.138741
vt 2.91994e-06 0.970056
vt 0.257079 0.0258167
vt 0.257079 0
vt 0.148184 0.181597
vt 0.999997 0.227349
vt 0.806813 0.0142024
vt 0.578085 0.986529
# 9 texture verticies
vn 0.0355357 0.0428965 0.998447
vn 0.0933752 0.116327 0.988812
vn 0.0363766 0.042253 0.998444
vn 0.15039 0.18873 0.970445
vn 0.15039 0.18873 0.970445
vn 0.0929529 0.11665 0.988814
vn 0.742267 -0.634518 -0.215468
vn 0.74107 -0.643918 -0.190223
vn 0.763202 -0.608765 -0.216628
vn 0.679296 -0.729279 -0.0819146
vn -0.744603 0.667502 -0.00295936
vn -0.733372 0.67857 -0.0413338
vn -0.752207 0.658911 -0.00462434
vn -0.788201 0.607059 -0.101084
vn 0.623194 0.782067 3.1659e-07
vn 0.748704 -0.638891 -0.176807
vn 0.748082 -0.657851 -0.0872097
vn -0.789483 0.613553 -0.0164181
vn -0.808289 0.579159 -0.106035
vn -0.652441 -0.757839 -3.6136e-07
# 20 normals
f 186/249/320 180/250/321 185/251/322
f 180/250/321 182/252/323 181/253/324
f 180/250/321 179/254/325 182/252/323
f 183/255/326 182/252/327 179/254/328
f 182/252/327 183/255/326 184/256/329
f 180/250/330 184/256/331 183/255/332
f 184/256/331 180/250/330 181/253/333
f 182/252/334 184/256/334 181/253/334
f 180/250/321 186/249/320 179/254/325
f 187/257/335 179/254/328 186/249/336
f 179/254/328 187/257/335 183/255/326
f 185/251/337 183/255/332 187/257/338
f 183/255/332 185/251/337 180/250/330
f 185/251/339 187/257/339 186/249/339
# object HeavyCorvetteBRWing
g HeavyCorvetteBRWing
v -12.9836 12.4568 -22.4699
v -14.1892 11.4961 -22.4699
v -11.6677 8.38319 -23.4657
v -10.9415 8.96191 -23.4657
v -11.2682 8.70156 -28.4931
v -16.6092 13.4824 -30.2597
v -29.7152 30.171 -21.1148
v -28.9356 30.8423 -21.1148
v -29.2863 30.5403 -26.4013
vt 0.148182 0.138604
vt 0 1
vt 0 0.970113
vt 0.257078 0.0257676
vt 0.148182 0.181378
vt 0.257078 0
vt 1 0.227044
vt 0.806814 0.0141757
vt 0.578085 0.986555
# 9 texture verticies
vn 0.0933422 -0.116286 0.98882
vn 0.0355124 -0.0428684 0.998449
vn 0.0363539 -0.0422268 0.998446
vn 0.150348 -0.188677 0.970462
vn 0.0929196 -0.116609 0.988822
vn 0.150348 -0.188677 0.970462
vn 0.741405 0.643498 -0.190339
vn 0.742845 0.633737 -0.215776
vn 0.764035 0.607614 -0.216925
vn 0.679618 0.728978 -0.0819185
vn -0.733795 -0.678118 -0.0412355
vn -0.745266 -0.666762 -0.00266506
vn -0.753128 -0.65786 -0.00432373
vn -0.788656 -0.606468 -0.101084
vn 0.623193 -0.782068 -1.15552e-07
vn 0.749829 0.637475 -0.177152
vn 0.749256 0.656513 -0.0872115
vn -0.790623 -0.612093 -0.0160669
vn -0.809427 -0.577571 -0.106016
vn -0.65244 0.75784 -2.31861e-07
# 20 normals
f 189/258/340 195/259/341 194/260/342
f 189/258/340 191/261/343 188/262/344
f 189/258/340 190/263/345 191/261/343
f 191/261/346 193/264/347 188/262/348
f 193/264/347 191/261/346 192/265/349
f 192/265/350 189/258/351 193/264/352
f 189/258/351 192/265/350 190/263/353
f 190/263/354 192/265/354 191/261/354
f 195/259/341 189/258/340 188/262/344
f 188/262/348 196/266/355 195/259/356
f 196/266/355 188/262/348 193/264/347
f 193/264/352 194/260/357 196/266/358
f 194/260/357 193/264/352 189/258/351
f 194/260/359 195/259/359 196/266/359
